\beamer@endinputifotherversion {3.22pt}
\beamer@sectionintoc {1}{Introduction}{2}{0}{1}
\beamer@subsectionintoc {1}{1}{Problem description}{2}{0}{1}
\beamer@sectionintoc {2}{Objectives}{4}{0}{2}
\beamer@sectionintoc {3}{Methodology}{5}{0}{3}
\beamer@subsectionintoc {3}{1}{Model definition}{5}{0}{3}
\beamer@sectionintoc {4}{Methodology}{7}{0}{4}
\beamer@subsectionintoc {4}{1}{Probabilistic Model Updating}{7}{0}{4}
\beamer@subsectionintoc {4}{2}{Experimental setup}{10}{0}{4}
\beamer@subsectionintoc {4}{3}{Model Updating}{14}{0}{4}
\beamer@subsectionintoc {4}{4}{Model Updating}{15}{0}{4}
\beamer@subsectionintoc {4}{5}{Histograms}{16}{0}{4}
\beamer@sectionintoc {5}{Conclusions}{17}{0}{5}
\beamer@sectionintoc {6}{Acknowledgments}{18}{0}{6}
