%!PS-Adobe-3.0 EPSF-3.0
%%Title: C:/Users/aro/Documents/HSI-PhD/IMAC2016/PaperTieModelUpdating/figures/Histogram_ACI.eps
%%Creator: matplotlib version 1.4.3, http://matplotlib.org/
%%CreationDate: Fri Oct 30 12:28:57 2015
%%Orientation: portrait
%%BoundingBox: 126 252 486 539
%%EndComments
%%BeginProlog
/mpldict 10 dict def
mpldict begin
/m { moveto } bind def
/l { lineto } bind def
/r { rlineto } bind def
/c { curveto } bind def
/cl { closepath } bind def
/box {
m
1 index 0 r
0 exch r
neg 0 r
cl
} bind def
/clipbox {
box
clip
newpath
} bind def
%!PS-Adobe-3.0 Resource-Font
%%Title: Bitstream Vera Sans
%%Copyright: Copyright (c) 2003 by Bitstream, Inc. All Rights Reserved.
%%Creator: Converted from TrueType to type 3 by PPR
25 dict begin
/_d{bind def}bind def
/_m{moveto}_d
/_l{lineto}_d
/_cl{closepath eofill}_d
/_c{curveto}_d
/_sc{7 -1 roll{setcachedevice}{pop pop pop pop pop pop}ifelse}_d
/_e{exec}_d
/FontName /BitstreamVeraSans-Roman def
/PaintType 0 def
/FontMatrix[.001 0 0 .001 0 0]def
/FontBBox[-183 -236 1287 928]def
/FontType 3 def
/Encoding [ /zero /one /two /three /five ] def
/FontInfo 10 dict dup begin
/FamilyName (Bitstream Vera Sans) def
/FullName (Bitstream Vera Sans) def
/Notice (Copyright (c) 2003 by Bitstream, Inc. All Rights Reserved. Bitstream Vera is a trademark of Bitstream, Inc.) def
/Weight (Roman) def
/Version (Release 1.10) def
/ItalicAngle 0.0 def
/isFixedPitch false def
/UnderlinePosition -213 def
/UnderlineThickness 143 def
end readonly def
/CharStrings 5 dict dup begin
/zero{636 0 66 -13 570 742 _sc
318 664 _m
267 664 229 639 203 589 _c
177 539 165 464 165 364 _c
165 264 177 189 203 139 _c
229 89 267 64 318 64 _c
369 64 407 89 433 139 _c
458 189 471 264 471 364 _c
471 464 458 539 433 589 _c
407 639 369 664 318 664 _c
318 742 _m
399 742 461 709 505 645 _c
548 580 570 486 570 364 _c
570 241 548 147 505 83 _c
461 19 399 -13 318 -13 _c
236 -13 173 19 130 83 _c
87 147 66 241 66 364 _c
66 486 87 580 130 645 _c
173 709 236 742 318 742 _c
_cl}_d
/one{636 0 110 0 544 729 _sc
124 83 _m
285 83 _l
285 639 _l
110 604 _l
110 694 _l
284 729 _l
383 729 _l
383 83 _l
544 83 _l
544 0 _l
124 0 _l
124 83 _l
_cl}_d
/two{{636 0 73 0 536 742 _sc
192 83 _m
536 83 _l
536 0 _l
73 0 _l
73 83 _l
110 121 161 173 226 239 _c
290 304 331 346 348 365 _c
380 400 402 430 414 455 _c
426 479 433 504 433 528 _c
433 566 419 598 392 622 _c
365 646 330 659 286 659 _c
255 659 222 653 188 643 _c
154 632 117 616 78 594 _c
78 694 _l
118 710 155 722 189 730 _c
223 738 255 742 284 742 _c
}_e{359 742 419 723 464 685 _c
509 647 532 597 532 534 _c
532 504 526 475 515 449 _c
504 422 484 390 454 354 _c
446 344 420 317 376 272 _c
332 227 271 164 192 83 _c
_cl}_e}_d
/three{{636 0 76 -13 556 742 _sc
406 393 _m
453 383 490 362 516 330 _c
542 298 556 258 556 212 _c
556 140 531 84 482 45 _c
432 6 362 -13 271 -13 _c
240 -13 208 -10 176 -4 _c
144 1 110 10 76 22 _c
76 117 _l
103 101 133 89 166 81 _c
198 73 232 69 268 69 _c
330 69 377 81 409 105 _c
441 129 458 165 458 212 _c
458 254 443 288 413 312 _c
383 336 341 349 287 349 _c
}_e{202 349 _l
202 430 _l
291 430 _l
339 430 376 439 402 459 _c
428 478 441 506 441 543 _c
441 580 427 609 401 629 _c
374 649 336 659 287 659 _c
260 659 231 656 200 650 _c
169 644 135 635 98 623 _c
98 711 _l
135 721 170 729 203 734 _c
235 739 266 742 296 742 _c
370 742 429 725 473 691 _c
517 657 539 611 539 553 _c
539 513 527 479 504 451 _c
481 423 448 403 406 393 _c
_cl}_e}_d
/five{{636 0 77 -13 549 729 _sc
108 729 _m
495 729 _l
495 646 _l
198 646 _l
198 467 _l
212 472 227 476 241 478 _c
255 480 270 482 284 482 _c
365 482 429 459 477 415 _c
525 370 549 310 549 234 _c
549 155 524 94 475 51 _c
426 8 357 -13 269 -13 _c
238 -13 207 -10 175 -6 _c
143 -1 111 6 77 17 _c
77 116 _l
106 100 136 88 168 80 _c
199 72 232 69 267 69 _c
}_e{323 69 368 83 401 113 _c
433 143 450 183 450 234 _c
450 284 433 324 401 354 _c
368 384 323 399 267 399 _c
241 399 214 396 188 390 _c
162 384 135 375 108 363 _c
108 729 _l
_cl}_e}_d
end readonly def

/BuildGlyph
 {exch begin
 CharStrings exch
 2 copy known not{pop /.notdef}if
 true 3 1 roll get exec
 end}_d

/BuildChar {
 1 index /Encoding get exch get
 1 index /BuildGlyph get exec
}_d

FontName currentdict end definefont pop
%!PS-Adobe-3.0 Resource-Font
%%Title: cmr10
%%Copyright: Copyright (C) 1994, Basil K. Malyshev. All Rights Reserved.012BaKoMa Fonts Collection, Level-B.
%%Creator: Converted from TrueType to type 3 by PPR
25 dict begin
/_d{bind def}bind def
/_m{moveto}_d
/_l{lineto}_d
/_cl{closepath eofill}_d
/_c{curveto}_d
/_sc{7 -1 roll{setcachedevice}{pop pop pop pop pop pop}ifelse}_d
/_e{exec}_d
/FontName /Cmr10 def
/PaintType 0 def
/FontMatrix[.001 0 0 .001 0 0]def
/FontBBox[-44 -250 1009 750]def
/FontType 3 def
/Encoding [ /parenright /parenleft ] def
/FontInfo 10 dict dup begin
/FamilyName (cmr10) def
/FullName (cmr10) def
/Notice (Copyright (C) 1994, Basil K. Malyshev. All Rights Reserved.012BaKoMa Fonts Collection, Level-B. ) def
/Weight (Regular) def
/Version (1.1/12-Nov-94) def
/ItalicAngle 0.0 def
/isFixedPitch false def
/UnderlinePosition -133 def
/UnderlineThickness 20 def
end readonly def
/CharStrings 2 dict dup begin
/parenright{{388 0 56 -249 291 750 _sc
65 -249 _m
59 -249 56 -246 56 -240 _c
56 -237 56 -235 58 -234 _c
172 -122 229 38 229 250 _c
229 462 172 623 60 733 _c
57 734 56 737 56 741 _c
56 743 57 745 59 747 _c
61 749 63 750 65 750 _c
74 750 _l
76 750 77 749 79 748 _c
127 710 167 664 199 610 _c
231 556 254 498 269 437 _c
283 376 291 314 291 250 _c
291 202 287 156 279 110 _c
}_e{271 64 258 20 241 -24 _c
223 -68 201 -108 175 -146 _c
148 -184 116 -217 79 -247 _c
77 -248 76 -249 74 -249 _c
65 -249 _l
_cl}_e}_d
/parenleft{{388 0 97 -249 332 750 _sc
310 -247 _m
272 -217 240 -184 214 -146 _c
187 -108 165 -67 148 -25 _c
131 17 118 62 110 109 _c
101 155 97 202 97 250 _c
97 298 101 345 110 392 _c
118 438 131 483 149 527 _c
166 570 188 611 215 649 _c
242 687 274 720 310 748 _c
310 749 311 750 315 750 _c
324 750 _l
326 750 327 749 329 747 _c
331 745 332 743 332 741 _c
332 738 331 736 330 735 _c
}_e{297 703 270 668 248 632 _c
226 596 209 557 196 516 _c
183 474 174 432 168 388 _c
162 344 159 298 159 250 _c
159 38 215 -122 329 -232 _c
331 -234 332 -236 332 -240 _c
332 -242 331 -244 329 -246 _c
327 -248 326 -249 324 -249 _c
315 -249 _l
311 -249 310 -248 310 -247 _c
_cl}_e}_d
end readonly def

/BuildGlyph
 {exch begin
 CharStrings exch
 2 copy known not{pop /.notdef}if
 true 3 1 roll get exec
 end}_d

/BuildChar {
 1 index /Encoding get exch get
 1 index /BuildGlyph get exec
}_d

FontName currentdict end definefont pop
%!PS-Adobe-3.0 Resource-Font
%%Title: cmmi10
%%Copyright: Copyright (C) 1994, Basil K. Malyshev. All Rights Reserved.012BaKoMa Fonts Collection, Level-B.
%%Creator: Converted from TrueType to type 3 by PPR
25 dict begin
/_d{bind def}bind def
/_m{moveto}_d
/_l{lineto}_d
/_cl{closepath eofill}_d
/_c{curveto}_d
/_sc{7 -1 roll{setcachedevice}{pop pop pop pop pop pop}ifelse}_d
/_e{exec}_d
/FontName /Cmmi10 def
/PaintType 0 def
/FontMatrix[.001 0 0 .001 0 0]def
/FontBBox[-34 -250 1048 750]def
/FontType 3 def
/Encoding [ /e /t /period /F /m /q /L /r ] def
/FontInfo 10 dict dup begin
/FamilyName (cmmi10) def
/FullName (cmmi10) def
/Notice (Copyright (C) 1994, Basil K. Malyshev. All Rights Reserved.012BaKoMa Fonts Collection, Level-B. ) def
/Weight (Regular) def
/Version (1.1/12-Nov-94) def
/ItalicAngle 0.0 def
/isFixedPitch false def
/UnderlinePosition -133 def
/UnderlineThickness 20 def
end readonly def
/CharStrings 8 dict dup begin
/e{{465 0 44 -10 430 442 _sc
201 -10 _m
169 -10 141 -2 117 14 _c
93 30 75 53 63 81 _c
50 109 44 138 44 170 _c
44 217 56 262 80 304 _c
104 346 136 379 177 404 _c
218 429 262 442 309 442 _c
337 442 362 434 384 419 _c
405 404 416 383 416 356 _c
416 317 400 288 370 270 _c
339 251 304 239 266 235 _c
228 231 185 229 139 229 _c
136 229 _l
125 189 120 155 120 127 _c
}_e{120 97 126 71 140 49 _c
154 26 175 15 203 15 _c
243 15 281 24 318 42 _c
354 60 384 86 407 118 _c
409 120 411 121 415 121 _c
418 121 421 119 425 115 _c
428 111 430 108 430 105 _c
430 102 429 100 428 99 _c
404 65 371 38 330 19 _c
288 0 245 -10 201 -10 _c
142 255 _m
180 255 216 256 249 260 _c
282 264 312 273 339 287 _c
365 301 379 324 379 355 _c
}_e{379 367 375 378 368 387 _c
361 396 352 403 342 408 _c
331 413 320 416 308 416 _c
280 416 254 408 232 393 _c
209 377 190 357 176 333 _c
161 308 150 282 142 255 _c
_cl}_e}_d
/t{{361 0 22 -10 330 626 _sc
62 81 _m
62 91 63 100 65 109 _c
137 396 _l
32 396 _l
25 396 22 400 22 409 _c
24 423 29 431 35 431 _c
146 431 _l
186 594 _l
188 602 193 610 201 616 _c
209 622 218 626 228 626 _c
236 626 243 623 249 618 _c
255 613 258 606 258 598 _c
258 596 257 594 257 593 _c
257 592 257 591 257 590 _c
217 431 _l
320 431 _l
326 431 330 426 330 418 _c
}_e{330 416 329 414 328 410 _c
327 406 326 402 324 400 _c
322 397 320 396 317 396 _c
208 396 _l
136 107 _l
131 88 129 72 129 58 _c
129 29 138 15 158 15 _c
187 15 213 28 236 56 _c
258 84 276 114 288 147 _c
290 151 293 153 296 153 _c
308 153 _l
310 153 312 152 314 150 _c
316 148 317 146 317 144 _c
317 142 316 141 316 141 _c
301 101 280 65 252 35 _c
}_e{224 5 192 -10 156 -10 _c
129 -10 107 -1 89 15 _c
71 32 62 54 62 81 _c
_cl}_e}_d
/period{277 0 84 0 194 110 _sc
84 55 _m
84 70 89 83 100 94 _c
111 104 124 110 139 110 _c
148 110 157 107 166 102 _c
174 97 181 90 186 82 _c
191 73 194 64 194 55 _c
194 40 188 27 178 16 _c
167 5 154 0 139 0 _c
124 0 111 5 100 16 _c
89 27 84 40 84 55 _c
_cl}_d
/F{{643 0 37 0 750 683 _sc
47 0 _m
40 0 37 4 37 13 _c
37 15 38 18 39 22 _c
40 26 41 29 43 31 _c
45 33 47 35 50 35 _c
90 35 119 37 135 42 _c
143 44 150 53 154 69 _c
291 618 _l
292 624 293 629 293 632 _c
293 639 289 643 281 644 _c
268 646 244 648 209 648 _c
202 648 199 652 199 661 _c
199 663 200 666 201 670 _c
202 674 203 677 205 679 _c
}_e{207 681 209 683 212 683 _c
740 683 _l
746 683 750 678 750 670 _c
726 463 _l
726 461 724 459 722 457 _c
720 455 718 454 716 454 _c
707 454 _l
700 454 697 458 697 467 _c
701 497 703 521 703 541 _c
703 574 695 598 681 614 _c
667 630 649 639 627 643 _c
605 646 575 648 537 648 _c
430 648 _l
412 648 400 646 394 643 _c
388 640 382 630 378 614 _c
314 359 _l
389 359 _l
}_e{413 359 433 360 449 363 _c
464 365 477 370 487 378 _c
497 385 505 396 512 410 _c
518 424 525 443 531 467 _c
533 473 536 476 541 476 _c
550 476 _l
556 476 560 471 560 463 _c
499 216 _l
496 210 493 207 489 207 _c
480 207 _l
473 207 470 211 470 220 _c
472 226 473 232 474 237 _c
475 241 476 248 478 257 _c
479 265 480 273 480 280 _c
480 299 471 311 454 316 _c
}_e{437 321 415 324 388 324 _c
306 324 _l
241 65 _l
239 58 239 55 239 55 _c
239 47 241 42 246 42 _c
263 37 297 35 348 35 _c
354 35 358 30 358 22 _c
355 12 353 6 352 4 _c
351 1 347 0 341 0 _c
47 0 _l
_cl}_e}_d
/m{{878 0 27 -10 851 442 _sc
77 17 _m
77 21 77 24 78 26 _c
153 324 _l
157 342 160 359 160 373 _c
160 401 150 416 131 416 _c
110 416 94 403 84 378 _c
74 353 64 322 55 284 _c
55 282 54 280 52 279 _c
50 278 48 278 47 278 _c
35 278 _l
33 278 31 279 29 281 _c
27 283 27 286 27 288 _c
34 317 41 342 48 362 _c
54 382 65 400 79 417 _c
}_e{93 433 110 442 132 442 _c
156 442 178 434 198 418 _c
217 402 227 382 227 358 _c
247 384 270 404 297 419 _c
323 434 352 442 382 442 _c
413 442 440 434 463 418 _c
486 402 498 379 498 349 _c
518 378 542 401 570 417 _c
597 433 627 442 660 442 _c
694 442 722 432 743 414 _c
764 395 775 368 775 334 _c
775 306 768 273 756 235 _c
744 196 729 153 711 105 _c
}_e{701 81 697 61 697 45 _c
697 25 704 15 720 15 _c
746 15 767 29 785 57 _c
802 85 814 115 822 147 _c
824 151 826 153 830 153 _c
842 153 _l
844 153 846 152 848 150 _c
850 148 851 146 851 144 _c
851 143 850 142 850 141 _c
840 103 824 68 802 37 _c
780 5 752 -10 718 -10 _c
694 -10 674 -2 658 13 _c
641 29 633 48 633 72 _c
633 83 635 96 641 111 _c
}_e{659 161 675 205 688 245 _c
700 284 707 319 707 349 _c
707 367 703 383 696 396 _c
688 409 676 416 658 416 _c
622 416 590 404 563 382 _c
536 360 513 330 494 294 _c
492 287 491 282 491 279 _c
427 22 _l
424 12 419 5 411 -1 _c
403 -7 394 -10 385 -10 _c
377 -10 370 -7 364 -3 _c
358 1 355 8 355 17 _c
355 21 355 24 356 26 _c
420 281 _l
426 308 430 331 430 349 _c
}_e{430 367 426 383 418 396 _c
410 409 398 416 380 416 _c
355 416 332 410 312 400 _c
292 389 274 375 259 357 _c
243 339 229 318 217 294 _c
149 22 _l
147 12 142 5 134 -1 _c
126 -7 117 -10 107 -10 _c
99 -10 92 -7 86 -3 _c
80 1 77 8 77 17 _c
_cl}_e}_d
/q{{446 0 38 -193 455 442 _sc
147 -180 _m
149 -165 153 -158 160 -158 _c
184 -158 203 -156 217 -152 _c
231 -148 240 -138 244 -124 _c
287 45 _l
249 8 211 -10 173 -10 _c
131 -10 98 5 74 37 _c
50 68 38 105 38 149 _c
38 191 49 236 71 282 _c
93 328 122 366 160 396 _c
198 426 238 442 282 442 _c
302 442 321 436 337 424 _c
353 412 365 396 374 376 _c
378 384 388 397 406 415 _c
}_e{424 433 436 442 444 442 _c
451 442 455 437 455 429 _c
315 -128 _l
313 -138 312 -143 312 -145 _c
312 -153 334 -158 378 -158 _c
381 -158 383 -159 385 -162 _c
387 -164 388 -167 388 -171 _c
386 -179 384 -185 382 -188 _c
380 -191 377 -193 371 -193 _c
157 -193 _l
150 -193 147 -188 147 -180 _c
175 15 _m
198 15 221 23 243 41 _c
265 59 285 80 302 105 _c
358 330 _l
354 353 345 373 332 390 _c
}_e{319 407 302 416 280 416 _c
257 416 236 406 217 388 _c
197 370 181 348 168 323 _c
154 296 142 259 130 213 _c
118 167 113 131 113 105 _c
113 81 118 60 128 42 _c
138 24 153 15 175 15 _c
_cl}_e}_d
/L{{680 0 37 0 645 683 _sc
47 0 _m
40 0 37 4 37 13 _c
37 15 38 18 39 22 _c
40 26 41 29 43 31 _c
45 33 47 35 50 35 _c
90 35 119 37 135 42 _c
143 44 150 53 154 69 _c
291 618 _l
292 624 293 629 293 632 _c
293 639 289 643 281 644 _c
268 646 244 648 209 648 _c
202 648 199 652 199 661 _c
201 669 203 675 205 678 _c
206 681 210 683 216 683 _c
}_e{511 683 _l
517 683 520 678 520 670 _c
519 663 518 658 517 654 _c
515 650 512 648 507 648 _c
457 648 424 646 408 643 _c
392 640 382 630 378 614 _c
241 65 _l
238 57 237 49 237 43 _c
237 37 248 35 271 35 _c
364 35 _l
416 35 458 45 491 66 _c
523 87 547 111 563 137 _c
579 163 592 190 603 218 _c
613 246 621 261 626 262 _c
635 262 _l
641 262 645 257 645 249 _c
}_e{556 7 _l
555 2 552 0 547 0 _c
47 0 _l
_cl}_e}_d
/r{{451 0 27 -10 434 442 _sc
77 17 _m
77 21 77 24 78 26 _c
153 324 _l
157 342 160 359 160 373 _c
160 401 150 416 131 416 _c
110 416 94 403 84 378 _c
74 353 64 322 55 284 _c
55 282 54 280 52 279 _c
50 278 48 278 47 278 _c
35 278 _l
33 278 31 279 29 281 _c
27 283 27 286 27 288 _c
34 317 41 342 48 362 _c
54 382 65 400 79 417 _c
}_e{93 433 110 442 132 442 _c
155 442 175 435 193 422 _c
210 408 221 391 225 369 _c
241 391 260 408 282 422 _c
304 435 328 442 354 442 _c
375 442 394 435 410 423 _c
426 411 434 394 434 373 _c
434 356 428 341 418 329 _c
407 316 393 310 376 310 _c
365 310 356 313 349 320 _c
341 326 338 335 338 346 _c
338 360 343 373 354 385 _c
364 397 377 403 391 403 _c
}_e{380 411 367 416 352 416 _c
323 416 298 405 277 385 _c
256 365 237 339 220 308 _c
149 22 _l
147 12 142 5 134 -1 _c
126 -7 117 -10 107 -10 _c
99 -10 92 -7 86 -3 _c
80 1 77 8 77 17 _c
_cl}_e}_d
end readonly def

/BuildGlyph
 {exch begin
 CharStrings exch
 2 copy known not{pop /.notdef}if
 true 3 1 roll get exec
 end}_d

/BuildChar {
 1 index /Encoding get exch get
 1 index /BuildGlyph get exec
}_d

FontName currentdict end definefont pop
end
%%EndProlog
mpldict begin
126 252.9 translate
360 286.2 0 0 clipbox
gsave
0 0 m
360 0 l
360 286.2 l
0 286.2 l
cl
1.000 setgray
fill
grestore
gsave
54 42.93 m
342 42.93 l
342 271.89 l
54 271.89 l
cl
1.000 setgray
fill
grestore
1.000 setlinewidth
0 setlinejoin
0 setlinecap
[] 0 setdash
0.000 setgray
gsave
288 229 54 42.93 clipbox
81.2394 42.93 m
83.116 42.93 l
83.116 44.4564 l
81.2394 44.4564 l
cl
gsave
0.502 setgray
fill
grestore
stroke
grestore
gsave
288 229 54 42.93 clipbox
83.116 42.93 m
84.9926 42.93 l
84.9926 46.746 l
83.116 46.746 l
cl
gsave
0.502 setgray
fill
grestore
stroke
grestore
gsave
288 229 54 42.93 clipbox
84.9926 42.93 m
86.8692 42.93 l
86.8692 52.0884 l
84.9926 52.0884 l
cl
gsave
0.502 setgray
fill
grestore
stroke
grestore
gsave
288 229 54 42.93 clipbox
86.8692 42.93 m
88.7458 42.93 l
88.7458 52.0884 l
86.8692 52.0884 l
cl
gsave
0.502 setgray
fill
grestore
stroke
grestore
gsave
288 229 54 42.93 clipbox
88.7458 42.93 m
90.6223 42.93 l
90.6223 73.458 l
88.7458 73.458 l
cl
gsave
0.502 setgray
fill
grestore
stroke
grestore
gsave
288 229 54 42.93 clipbox
90.6223 42.93 m
92.4989 42.93 l
92.4989 70.4052 l
90.6223 70.4052 l
cl
gsave
0.502 setgray
fill
grestore
stroke
grestore
gsave
288 229 54 42.93 clipbox
92.4989 42.93 m
94.3755 42.93 l
94.3755 87.9588 l
92.4989 87.9588 l
cl
gsave
0.502 setgray
fill
grestore
stroke
grestore
gsave
288 229 54 42.93 clipbox
94.3755 42.93 m
96.2521 42.93 l
96.2521 87.1956 l
94.3755 87.1956 l
cl
gsave
0.502 setgray
fill
grestore
stroke
grestore
gsave
288 229 54 42.93 clipbox
96.2521 42.93 m
98.1287 42.93 l
98.1287 104.749 l
96.2521 104.749 l
cl
gsave
0.502 setgray
fill
grestore
stroke
grestore
gsave
288 229 54 42.93 clipbox
98.1287 42.93 m
100.005 42.93 l
100.005 108.565 l
98.1287 108.565 l
cl
gsave
0.502 setgray
fill
grestore
stroke
grestore
gsave
288 229 54 42.93 clipbox
100.005 42.93 m
101.882 42.93 l
101.882 123.829 l
100.005 123.829 l
cl
gsave
0.502 setgray
fill
grestore
stroke
grestore
gsave
288 229 54 42.93 clipbox
101.882 42.93 m
103.758 42.93 l
103.758 115.434 l
101.882 115.434 l
cl
gsave
0.502 setgray
fill
grestore
stroke
grestore
gsave
288 229 54 42.93 clipbox
103.758 42.93 m
105.635 42.93 l
105.635 139.856 l
103.758 139.856 l
cl
gsave
0.502 setgray
fill
grestore
stroke
grestore
gsave
288 229 54 42.93 clipbox
105.635 42.93 m
107.512 42.93 l
107.512 114.671 l
105.635 114.671 l
cl
gsave
0.502 setgray
fill
grestore
stroke
grestore
gsave
288 229 54 42.93 clipbox
107.512 42.93 m
109.388 42.93 l
109.388 117.724 l
107.512 117.724 l
cl
gsave
0.502 setgray
fill
grestore
stroke
grestore
gsave
288 229 54 42.93 clipbox
109.388 42.93 m
111.265 42.93 l
111.265 156.647 l
109.388 156.647 l
cl
gsave
0.502 setgray
fill
grestore
stroke
grestore
gsave
288 229 54 42.93 clipbox
111.265 42.93 m
113.141 42.93 l
113.141 136.04 l
111.265 136.04 l
cl
gsave
0.502 setgray
fill
grestore
stroke
grestore
gsave
288 229 54 42.93 clipbox
113.141 42.93 m
115.018 42.93 l
115.018 149.015 l
113.141 149.015 l
cl
gsave
0.502 setgray
fill
grestore
stroke
grestore
gsave
288 229 54 42.93 clipbox
115.018 42.93 m
116.895 42.93 l
116.895 141.383 l
115.018 141.383 l
cl
gsave
0.502 setgray
fill
grestore
stroke
grestore
gsave
288 229 54 42.93 clipbox
116.895 42.93 m
118.771 42.93 l
118.771 153.594 l
116.895 153.594 l
cl
gsave
0.502 setgray
fill
grestore
stroke
grestore
gsave
288 229 54 42.93 clipbox
118.771 42.93 m
120.648 42.93 l
120.648 166.568 l
118.771 166.568 l
cl
gsave
0.502 setgray
fill
grestore
stroke
grestore
gsave
288 229 54 42.93 clipbox
120.648 42.93 m
122.524 42.93 l
122.524 152.068 l
120.648 152.068 l
cl
gsave
0.502 setgray
fill
grestore
stroke
grestore
gsave
288 229 54 42.93 clipbox
122.524 42.93 m
124.401 42.93 l
124.401 152.068 l
122.524 152.068 l
cl
gsave
0.502 setgray
fill
grestore
stroke
grestore
gsave
288 229 54 42.93 clipbox
124.401 42.93 m
126.277 42.93 l
126.277 142.909 l
124.401 142.909 l
cl
gsave
0.502 setgray
fill
grestore
stroke
grestore
gsave
288 229 54 42.93 clipbox
126.277 42.93 m
128.154 42.93 l
128.154 161.989 l
126.277 161.989 l
cl
gsave
0.502 setgray
fill
grestore
stroke
grestore
gsave
288 229 54 42.93 clipbox
128.154 42.93 m
130.031 42.93 l
130.031 162.752 l
128.154 162.752 l
cl
gsave
0.502 setgray
fill
grestore
stroke
grestore
gsave
288 229 54 42.93 clipbox
130.031 42.93 m
131.907 42.93 l
131.907 178.78 l
130.031 178.78 l
cl
gsave
0.502 setgray
fill
grestore
stroke
grestore
gsave
288 229 54 42.93 clipbox
131.907 42.93 m
133.784 42.93 l
133.784 167.332 l
131.907 167.332 l
cl
gsave
0.502 setgray
fill
grestore
stroke
grestore
gsave
288 229 54 42.93 clipbox
133.784 42.93 m
135.66 42.93 l
135.66 180.306 l
133.784 180.306 l
cl
gsave
0.502 setgray
fill
grestore
stroke
grestore
gsave
288 229 54 42.93 clipbox
135.66 42.93 m
137.537 42.93 l
137.537 145.199 l
135.66 145.199 l
cl
gsave
0.502 setgray
fill
grestore
stroke
grestore
gsave
288 229 54 42.93 clipbox
137.537 42.93 m
139.414 42.93 l
139.414 140.62 l
137.537 140.62 l
cl
gsave
0.502 setgray
fill
grestore
stroke
grestore
gsave
288 229 54 42.93 clipbox
139.414 42.93 m
141.29 42.93 l
141.29 129.935 l
139.414 129.935 l
cl
gsave
0.502 setgray
fill
grestore
stroke
grestore
gsave
288 229 54 42.93 clipbox
141.29 42.93 m
143.167 42.93 l
143.167 129.172 l
141.29 129.172 l
cl
gsave
0.502 setgray
fill
grestore
stroke
grestore
gsave
288 229 54 42.93 clipbox
143.167 42.93 m
145.043 42.93 l
145.043 107.039 l
143.167 107.039 l
cl
gsave
0.502 setgray
fill
grestore
stroke
grestore
gsave
288 229 54 42.93 clipbox
145.043 42.93 m
146.92 42.93 l
146.92 101.696 l
145.043 101.696 l
cl
gsave
0.502 setgray
fill
grestore
stroke
grestore
gsave
288 229 54 42.93 clipbox
146.92 42.93 m
148.796 42.93 l
148.796 94.0644 l
146.92 94.0644 l
cl
gsave
0.502 setgray
fill
grestore
stroke
grestore
gsave
288 229 54 42.93 clipbox
148.796 42.93 m
150.673 42.93 l
150.673 95.5908 l
148.796 95.5908 l
cl
gsave
0.502 setgray
fill
grestore
stroke
grestore
gsave
288 229 54 42.93 clipbox
150.673 42.93 m
152.55 42.93 l
152.55 103.986 l
150.673 103.986 l
cl
gsave
0.502 setgray
fill
grestore
stroke
grestore
gsave
288 229 54 42.93 clipbox
152.55 42.93 m
154.426 42.93 l
154.426 86.4324 l
152.55 86.4324 l
cl
gsave
0.502 setgray
fill
grestore
stroke
grestore
gsave
288 229 54 42.93 clipbox
154.426 42.93 m
156.303 42.93 l
156.303 78.0372 l
154.426 78.0372 l
cl
gsave
0.502 setgray
fill
grestore
stroke
grestore
gsave
288 229 54 42.93 clipbox
156.303 42.93 m
158.179 42.93 l
158.179 80.3268 l
156.303 80.3268 l
cl
gsave
0.502 setgray
fill
grestore
stroke
grestore
gsave
288 229 54 42.93 clipbox
158.179 42.93 m
160.056 42.93 l
160.056 74.2212 l
158.179 74.2212 l
cl
gsave
0.502 setgray
fill
grestore
stroke
grestore
gsave
288 229 54 42.93 clipbox
160.056 42.93 m
161.933 42.93 l
161.933 72.6948 l
160.056 72.6948 l
cl
gsave
0.502 setgray
fill
grestore
stroke
grestore
gsave
288 229 54 42.93 clipbox
161.933 42.93 m
163.809 42.93 l
163.809 68.8788 l
161.933 68.8788 l
cl
gsave
0.502 setgray
fill
grestore
stroke
grestore
gsave
288 229 54 42.93 clipbox
163.809 42.93 m
165.686 42.93 l
165.686 69.642 l
163.809 69.642 l
cl
gsave
0.502 setgray
fill
grestore
stroke
grestore
gsave
288 229 54 42.93 clipbox
165.686 42.93 m
167.562 42.93 l
167.562 68.8788 l
165.686 68.8788 l
cl
gsave
0.502 setgray
fill
grestore
stroke
grestore
gsave
288 229 54 42.93 clipbox
167.562 42.93 m
169.439 42.93 l
169.439 59.7204 l
167.562 59.7204 l
cl
gsave
0.502 setgray
fill
grestore
stroke
grestore
gsave
288 229 54 42.93 clipbox
169.439 42.93 m
171.315 42.93 l
171.315 64.2996 l
169.439 64.2996 l
cl
gsave
0.502 setgray
fill
grestore
stroke
grestore
gsave
288 229 54 42.93 clipbox
171.315 42.93 m
173.192 42.93 l
173.192 73.458 l
171.315 73.458 l
cl
gsave
0.502 setgray
fill
grestore
stroke
grestore
gsave
288 229 54 42.93 clipbox
173.192 42.93 m
175.069 42.93 l
175.069 57.4308 l
173.192 57.4308 l
cl
gsave
0.502 setgray
fill
grestore
stroke
grestore
gsave
288 229 54 42.93 clipbox
175.069 42.93 m
176.945 42.93 l
176.945 59.7204 l
175.069 59.7204 l
cl
gsave
0.502 setgray
fill
grestore
stroke
grestore
gsave
288 229 54 42.93 clipbox
176.945 42.93 m
178.822 42.93 l
178.822 59.7204 l
176.945 59.7204 l
cl
gsave
0.502 setgray
fill
grestore
stroke
grestore
gsave
288 229 54 42.93 clipbox
178.822 42.93 m
180.698 42.93 l
180.698 62.7732 l
178.822 62.7732 l
cl
gsave
0.502 setgray
fill
grestore
stroke
grestore
gsave
288 229 54 42.93 clipbox
180.698 42.93 m
182.575 42.93 l
182.575 63.5364 l
180.698 63.5364 l
cl
gsave
0.502 setgray
fill
grestore
stroke
grestore
gsave
288 229 54 42.93 clipbox
182.575 42.93 m
184.452 42.93 l
184.452 60.4836 l
182.575 60.4836 l
cl
gsave
0.502 setgray
fill
grestore
stroke
grestore
gsave
288 229 54 42.93 clipbox
184.452 42.93 m
186.328 42.93 l
186.328 52.8516 l
184.452 52.8516 l
cl
gsave
0.502 setgray
fill
grestore
stroke
grestore
gsave
288 229 54 42.93 clipbox
186.328 42.93 m
188.205 42.93 l
188.205 53.6148 l
186.328 53.6148 l
cl
gsave
0.502 setgray
fill
grestore
stroke
grestore
gsave
288 229 54 42.93 clipbox
188.205 42.93 m
190.081 42.93 l
190.081 56.6676 l
188.205 56.6676 l
cl
gsave
0.502 setgray
fill
grestore
stroke
grestore
gsave
288 229 54 42.93 clipbox
190.081 42.93 m
191.958 42.93 l
191.958 52.8516 l
190.081 52.8516 l
cl
gsave
0.502 setgray
fill
grestore
stroke
grestore
gsave
288 229 54 42.93 clipbox
191.958 42.93 m
193.834 42.93 l
193.834 56.6676 l
191.958 56.6676 l
cl
gsave
0.502 setgray
fill
grestore
stroke
grestore
gsave
288 229 54 42.93 clipbox
193.834 42.93 m
195.711 42.93 l
195.711 55.1412 l
193.834 55.1412 l
cl
gsave
0.502 setgray
fill
grestore
stroke
grestore
gsave
288 229 54 42.93 clipbox
195.711 42.93 m
197.588 42.93 l
197.588 50.562 l
195.711 50.562 l
cl
gsave
0.502 setgray
fill
grestore
stroke
grestore
gsave
288 229 54 42.93 clipbox
197.588 42.93 m
199.464 42.93 l
199.464 52.0884 l
197.588 52.0884 l
cl
gsave
0.502 setgray
fill
grestore
stroke
grestore
gsave
288 229 54 42.93 clipbox
199.464 42.93 m
201.341 42.93 l
201.341 48.2724 l
199.464 48.2724 l
cl
gsave
0.502 setgray
fill
grestore
stroke
grestore
gsave
288 229 54 42.93 clipbox
201.341 42.93 m
203.217 42.93 l
203.217 48.2724 l
201.341 48.2724 l
cl
gsave
0.502 setgray
fill
grestore
stroke
grestore
gsave
288 229 54 42.93 clipbox
203.217 42.93 m
205.094 42.93 l
205.094 48.2724 l
203.217 48.2724 l
cl
gsave
0.502 setgray
fill
grestore
stroke
grestore
gsave
288 229 54 42.93 clipbox
205.094 42.93 m
206.971 42.93 l
206.971 49.7988 l
205.094 49.7988 l
cl
gsave
0.502 setgray
fill
grestore
stroke
grestore
gsave
288 229 54 42.93 clipbox
206.971 42.93 m
208.847 42.93 l
208.847 48.2724 l
206.971 48.2724 l
cl
gsave
0.502 setgray
fill
grestore
stroke
grestore
gsave
288 229 54 42.93 clipbox
208.847 42.93 m
210.724 42.93 l
210.724 47.5092 l
208.847 47.5092 l
cl
gsave
0.502 setgray
fill
grestore
stroke
grestore
gsave
288 229 54 42.93 clipbox
210.724 42.93 m
212.6 42.93 l
212.6 49.0356 l
210.724 49.0356 l
cl
gsave
0.502 setgray
fill
grestore
stroke
grestore
gsave
288 229 54 42.93 clipbox
212.6 42.93 m
214.477 42.93 l
214.477 49.7988 l
212.6 49.7988 l
cl
gsave
0.502 setgray
fill
grestore
stroke
grestore
gsave
288 229 54 42.93 clipbox
214.477 42.93 m
216.353 42.93 l
216.353 48.2724 l
214.477 48.2724 l
cl
gsave
0.502 setgray
fill
grestore
stroke
grestore
gsave
288 229 54 42.93 clipbox
216.353 42.93 m
218.23 42.93 l
218.23 48.2724 l
216.353 48.2724 l
cl
gsave
0.502 setgray
fill
grestore
stroke
grestore
gsave
288 229 54 42.93 clipbox
218.23 42.93 m
220.107 42.93 l
220.107 49.0356 l
218.23 49.0356 l
cl
gsave
0.502 setgray
fill
grestore
stroke
grestore
gsave
288 229 54 42.93 clipbox
220.107 42.93 m
221.983 42.93 l
221.983 50.562 l
220.107 50.562 l
cl
gsave
0.502 setgray
fill
grestore
stroke
grestore
gsave
288 229 54 42.93 clipbox
221.983 42.93 m
223.86 42.93 l
223.86 48.2724 l
221.983 48.2724 l
cl
gsave
0.502 setgray
fill
grestore
stroke
grestore
gsave
288 229 54 42.93 clipbox
223.86 42.93 m
225.736 42.93 l
225.736 48.2724 l
223.86 48.2724 l
cl
gsave
0.502 setgray
fill
grestore
stroke
grestore
gsave
288 229 54 42.93 clipbox
225.736 42.93 m
227.613 42.93 l
227.613 45.2196 l
225.736 45.2196 l
cl
gsave
0.502 setgray
fill
grestore
stroke
grestore
gsave
288 229 54 42.93 clipbox
227.613 42.93 m
229.49 42.93 l
229.49 48.2724 l
227.613 48.2724 l
cl
gsave
0.502 setgray
fill
grestore
stroke
grestore
gsave
288 229 54 42.93 clipbox
229.49 42.93 m
231.366 42.93 l
231.366 46.746 l
229.49 46.746 l
cl
gsave
0.502 setgray
fill
grestore
stroke
grestore
gsave
288 229 54 42.93 clipbox
231.366 42.93 m
233.243 42.93 l
233.243 49.7988 l
231.366 49.7988 l
cl
gsave
0.502 setgray
fill
grestore
stroke
grestore
gsave
288 229 54 42.93 clipbox
233.243 42.93 m
235.119 42.93 l
235.119 43.6932 l
233.243 43.6932 l
cl
gsave
0.502 setgray
fill
grestore
stroke
grestore
gsave
288 229 54 42.93 clipbox
235.119 42.93 m
236.996 42.93 l
236.996 45.9828 l
235.119 45.9828 l
cl
gsave
0.502 setgray
fill
grestore
stroke
grestore
gsave
288 229 54 42.93 clipbox
236.996 42.93 m
238.872 42.93 l
238.872 47.5092 l
236.996 47.5092 l
cl
gsave
0.502 setgray
fill
grestore
stroke
grestore
gsave
288 229 54 42.93 clipbox
238.872 42.93 m
240.749 42.93 l
240.749 44.4564 l
238.872 44.4564 l
cl
gsave
0.502 setgray
fill
grestore
stroke
grestore
gsave
288 229 54 42.93 clipbox
240.749 42.93 m
242.626 42.93 l
242.626 49.7988 l
240.749 49.7988 l
cl
gsave
0.502 setgray
fill
grestore
stroke
grestore
gsave
288 229 54 42.93 clipbox
242.626 42.93 m
244.502 42.93 l
244.502 43.6932 l
242.626 43.6932 l
cl
gsave
0.502 setgray
fill
grestore
stroke
grestore
gsave
288 229 54 42.93 clipbox
244.502 42.93 m
246.379 42.93 l
246.379 46.746 l
244.502 46.746 l
cl
gsave
0.502 setgray
fill
grestore
stroke
grestore
gsave
288 229 54 42.93 clipbox
246.379 42.93 m
248.255 42.93 l
248.255 47.5092 l
246.379 47.5092 l
cl
gsave
0.502 setgray
fill
grestore
stroke
grestore
gsave
288 229 54 42.93 clipbox
248.255 42.93 m
250.132 42.93 l
250.132 46.746 l
248.255 46.746 l
cl
gsave
0.502 setgray
fill
grestore
stroke
grestore
gsave
288 229 54 42.93 clipbox
250.132 42.93 m
252.009 42.93 l
252.009 43.6932 l
250.132 43.6932 l
cl
gsave
0.502 setgray
fill
grestore
stroke
grestore
gsave
288 229 54 42.93 clipbox
252.009 42.93 m
253.885 42.93 l
253.885 45.9828 l
252.009 45.9828 l
cl
gsave
0.502 setgray
fill
grestore
stroke
grestore
gsave
288 229 54 42.93 clipbox
253.885 42.93 m
255.762 42.93 l
255.762 45.2196 l
253.885 45.2196 l
cl
gsave
0.502 setgray
fill
grestore
stroke
grestore
gsave
288 229 54 42.93 clipbox
255.762 42.93 m
257.638 42.93 l
257.638 45.9828 l
255.762 45.9828 l
cl
gsave
0.502 setgray
fill
grestore
stroke
grestore
gsave
288 229 54 42.93 clipbox
257.638 42.93 m
259.515 42.93 l
259.515 44.4564 l
257.638 44.4564 l
cl
gsave
0.502 setgray
fill
grestore
stroke
grestore
gsave
288 229 54 42.93 clipbox
259.515 42.93 m
261.391 42.93 l
261.391 45.9828 l
259.515 45.9828 l
cl
gsave
0.502 setgray
fill
grestore
stroke
grestore
gsave
288 229 54 42.93 clipbox
261.391 42.93 m
263.268 42.93 l
263.268 42.93 l
261.391 42.93 l
cl
gsave
0.502 setgray
fill
grestore
stroke
grestore
gsave
288 229 54 42.93 clipbox
263.268 42.93 m
265.145 42.93 l
265.145 43.6932 l
263.268 43.6932 l
cl
gsave
0.502 setgray
fill
grestore
stroke
grestore
gsave
288 229 54 42.93 clipbox
265.145 42.93 m
267.021 42.93 l
267.021 46.746 l
265.145 46.746 l
cl
gsave
0.502 setgray
fill
grestore
stroke
grestore
gsave
288 229 54 42.93 clipbox
267.021 42.93 m
268.898 42.93 l
268.898 46.746 l
267.021 46.746 l
cl
gsave
0.502 setgray
fill
grestore
stroke
grestore
2 setlinecap
gsave
54 271.89 m
342 271.89 l
stroke
grestore
gsave
342 42.93 m
342 271.89 l
stroke
grestore
gsave
54 42.93 m
342 42.93 l
stroke
grestore
gsave
54 42.93 m
54 271.89 l
stroke
grestore
0.500 setlinewidth
1 setlinejoin
0 setlinecap
[1 3] 0 setdash
gsave
288 229 54 42.93 clipbox
54 42.93 m
54 271.89 l
stroke
grestore
[] 0 setdash
gsave
/o {
gsave
newpath
translate
0.5 setlinewidth
1 setlinejoin
0 setlinecap
0 0 m
0 4 l
gsave
0.000 setgray
fill
grestore
stroke
grestore
} bind def
54 42.93 o
grestore
gsave
/o {
gsave
newpath
translate
0.5 setlinewidth
1 setlinejoin
0 setlinecap
0 0 m
0 -4 l
gsave
0.000 setgray
fill
grestore
stroke
grestore
} bind def
54 271.89 o
grestore
/BitstreamVeraSans-Roman findfont
12.000 scalefont
setfont
gsave
50.976562 29.805000 translate
0.000000 rotate
0.000000 0.000000 m /zero glyphshow
grestore
[1 3] 0 setdash
gsave
288 229 54 42.93 clipbox
150 42.93 m
150 271.89 l
stroke
grestore
[] 0 setdash
gsave
/o {
gsave
newpath
translate
0.5 setlinewidth
1 setlinejoin
0 setlinecap
0 0 m
0 4 l
gsave
0.000 setgray
fill
grestore
stroke
grestore
} bind def
150 42.93 o
grestore
gsave
/o {
gsave
newpath
translate
0.5 setlinewidth
1 setlinejoin
0 setlinecap
0 0 m
0 -4 l
gsave
0.000 setgray
fill
grestore
stroke
grestore
} bind def
150 271.89 o
grestore
gsave
139.398438 29.805000 translate
0.000000 rotate
0.000000 0.000000 m /five glyphshow
7.634766 0.000000 m /zero glyphshow
15.269531 0.000000 m /zero glyphshow
grestore
[1 3] 0 setdash
gsave
288 229 54 42.93 clipbox
246 42.93 m
246 271.89 l
stroke
grestore
[] 0 setdash
gsave
/o {
gsave
newpath
translate
0.5 setlinewidth
1 setlinejoin
0 setlinecap
0 0 m
0 4 l
gsave
0.000 setgray
fill
grestore
stroke
grestore
} bind def
246 42.93 o
grestore
gsave
/o {
gsave
newpath
translate
0.5 setlinewidth
1 setlinejoin
0 setlinecap
0 0 m
0 -4 l
gsave
0.000 setgray
fill
grestore
stroke
grestore
} bind def
246 271.89 o
grestore
gsave
231.773438 29.805000 translate
0.000000 rotate
0.000000 0.000000 m /one glyphshow
7.634766 0.000000 m /zero glyphshow
15.269531 0.000000 m /zero glyphshow
22.904297 0.000000 m /zero glyphshow
grestore
[1 3] 0 setdash
gsave
288 229 54 42.93 clipbox
342 42.93 m
342 271.89 l
stroke
grestore
[] 0 setdash
gsave
/o {
gsave
newpath
translate
0.5 setlinewidth
1 setlinejoin
0 setlinecap
0 0 m
0 4 l
gsave
0.000 setgray
fill
grestore
stroke
grestore
} bind def
342 42.93 o
grestore
gsave
/o {
gsave
newpath
translate
0.5 setlinewidth
1 setlinejoin
0 setlinecap
0 0 m
0 -4 l
gsave
0.000 setgray
fill
grestore
stroke
grestore
} bind def
342 271.89 o
grestore
gsave
327.773438 29.805000 translate
0.000000 rotate
0.000000 0.000000 m /one glyphshow
7.634766 0.000000 m /five glyphshow
15.269531 0.000000 m /zero glyphshow
22.904297 0.000000 m /zero glyphshow
grestore
gsave
165.500000 8.305000 translate
0.000000 rotate
/Cmmi10 findfont
18.0 scalefont
setfont
0.000000 0.500000 moveto
/L glyphshow

/Cmmi10 findfont
12.6 scalefont
setfont
12.243164 -4.091687 moveto
/t glyphshow

/Cmr10 findfont
18.0 scalefont
setfont
18.738281 0.500000 moveto
/parenleft glyphshow

/Cmmi10 findfont
18.0 scalefont
setfont
25.725586 0.500000 moveto
/m glyphshow

41.528320 0.500000 moveto
/m glyphshow

/Cmr10 findfont
18.0 scalefont
setfont
57.331055 0.500000 moveto
/parenright glyphshow


grestore
[1 3] 0 setdash
gsave
288 229 54 42.93 clipbox
54 42.93 m
342 42.93 l
stroke
grestore
[] 0 setdash
gsave
/o {
gsave
newpath
translate
0.5 setlinewidth
1 setlinejoin
0 setlinecap
0 0 m
4 0 l
gsave
0.000 setgray
fill
grestore
stroke
grestore
} bind def
54 42.93 o
grestore
gsave
/o {
gsave
newpath
translate
0.5 setlinewidth
1 setlinejoin
0 setlinecap
0 0 m
-4 0 l
gsave
0.000 setgray
fill
grestore
stroke
grestore
} bind def
342 42.93 o
grestore
gsave
43.953125 39.617500 translate
0.000000 rotate
0.000000 0.000000 m /zero glyphshow
grestore
[1 3] 0 setdash
gsave
288 229 54 42.93 clipbox
54 119.25 m
342 119.25 l
stroke
grestore
[] 0 setdash
gsave
/o {
gsave
newpath
translate
0.5 setlinewidth
1 setlinejoin
0 setlinecap
0 0 m
4 0 l
gsave
0.000 setgray
fill
grestore
stroke
grestore
} bind def
54 119.25 o
grestore
gsave
/o {
gsave
newpath
translate
0.5 setlinewidth
1 setlinejoin
0 setlinecap
0 0 m
-4 0 l
gsave
0.000 setgray
fill
grestore
stroke
grestore
} bind def
342 119.25 o
grestore
gsave
29.187500 115.937500 translate
0.000000 rotate
0.000000 0.000000 m /one glyphshow
7.634766 0.000000 m /zero glyphshow
15.269531 0.000000 m /zero glyphshow
grestore
[1 3] 0 setdash
gsave
288 229 54 42.93 clipbox
54 195.57 m
342 195.57 l
stroke
grestore
[] 0 setdash
gsave
/o {
gsave
newpath
translate
0.5 setlinewidth
1 setlinejoin
0 setlinecap
0 0 m
4 0 l
gsave
0.000 setgray
fill
grestore
stroke
grestore
} bind def
54 195.57 o
grestore
gsave
/o {
gsave
newpath
translate
0.5 setlinewidth
1 setlinejoin
0 setlinecap
0 0 m
-4 0 l
gsave
0.000 setgray
fill
grestore
stroke
grestore
} bind def
342 195.57 o
grestore
gsave
28.750000 192.257500 translate
0.000000 rotate
0.000000 0.000000 m /two glyphshow
7.634766 0.000000 m /zero glyphshow
15.269531 0.000000 m /zero glyphshow
grestore
[1 3] 0 setdash
gsave
288 229 54 42.93 clipbox
54 271.89 m
342 271.89 l
stroke
grestore
[] 0 setdash
gsave
/o {
gsave
newpath
translate
0.5 setlinewidth
1 setlinejoin
0 setlinecap
0 0 m
4 0 l
gsave
0.000 setgray
fill
grestore
stroke
grestore
} bind def
54 271.89 o
grestore
gsave
/o {
gsave
newpath
translate
0.5 setlinewidth
1 setlinejoin
0 setlinecap
0 0 m
-4 0 l
gsave
0.000 setgray
fill
grestore
stroke
grestore
} bind def
342 271.89 o
grestore
gsave
28.796875 268.577500 translate
0.000000 rotate
0.000000 0.000000 m /three glyphshow
7.634766 0.000000 m /zero glyphshow
15.269531 0.000000 m /zero glyphshow
grestore
gsave
19.750000 136.410000 translate
90.000000 rotate
/Cmmi10 findfont
18.0 scalefont
setfont
0.000000 0.703125 moveto
/F glyphshow

11.575195 0.703125 moveto
/r glyphshow

19.696289 0.703125 moveto
/e glyphshow

28.063477 0.703125 moveto
/q glyphshow

36.087891 0.703125 moveto
/period glyphshow


grestore

end
showpage
